<?xml version="1.0" encoding="utf-8"?>
<!-- Generator: Adobe Illustrator 27.2.0, SVG Export Plug-In . SVG Version: 6.00 Build 0)  -->
<svg version="1.1" id="Layer_1" xmlns="http://www.w3.org/2000/svg" xmlns:xlink="http://www.w3.org/1999/xlink" x="0px" y="0px"
	 width="44px" height="44px" viewBox="0 0 44 44" style="enable-background:new 0 0 44 44;" xml:space="preserve">
<style type="text/css">
	.st0{fill:#E6E6E6;}
</style>
<g>
	<path class="st0" d="M31.5,14.5c0,0.9-0.8,1.7-1.7,1.7c-0.9,0-1.7-0.8-1.7-1.7s0.8-1.7,1.7-1.7C30.8,12.8,31.5,13.5,31.5,14.5z
		 M29.4,22.2c0,4-3.2,7.2-7.2,7.2S15,26.2,15,22.2s3.2-7.2,7.2-7.2C26.2,15,29.4,18.2,29.4,22.2z M26.8,22.2c0-2.5-2.1-4.6-4.6-4.6
		s-4.6,2.1-4.6,4.6s2.1,4.6,4.6,4.6C24.7,26.8,26.8,24.7,26.8,22.2z M36.8,16.4c0-4.9-3.9-8.8-8.8-8.8H16c-4.9,0-8.8,3.9-8.8,8.8v12
		c0,4.9,3.9,8.8,8.8,8.8h12c4.9,0,8.8-3.9,8.8-8.8V16.4z M33.9,28.3c0,3.3-2.7,6-6,6H16.1c-3.3,0-6-2.7-6-6V16.5c0-3.3,2.7-6,6-6
		h11.7c3.3,0,6,2.7,6,6v11.8H33.9z"/>
</g>
</svg>
